EESchema Schematic File Version 4
LIBS:foo-cache
EELAYER 29 0
EELAYER END
$Descr A4 11693 8268
encoding utf-8
Sheet 1 1
Title ""
Date ""
Rev ""
Comp ""
Comment1 ""
Comment2 ""
Comment3 ""
Comment4 ""
$EndDescr
$Comp
L RF_Module:ESP-12F U1
U 1 1 5C2BC9BF
P 5450 2200
F 0 "U1" H 5450 3178 50  0000 C CNN
F 1 "ESP-12F" H 5450 3087 50  0000 C CNN
F 2 "RF_Module:ESP-12E" H 5450 2200 50  0001 C CNN
F 3 "http://wiki.ai-thinker.com/_media/esp8266/esp8266_series_modules_user_manual_v1.1.pdf" H 5100 2300 50  0001 C CNN
	1    5450 2200
	1    0    0    -1  
$EndComp
$Comp
L power:GND #PWR0101
U 1 1 5C2BCB01
P 5450 3100
F 0 "#PWR0101" H 5450 2850 50  0001 C CNN
F 1 "GND" H 5455 2927 50  0000 C CNN
F 2 "" H 5450 3100 50  0001 C CNN
F 3 "" H 5450 3100 50  0001 C CNN
	1    5450 3100
	1    0    0    -1  
$EndComp
$Comp
L power:GND #PWR0103
U 1 1 5C2D82A6
P 2950 1600
F 0 "#PWR0103" H 2950 1350 50  0001 C CNN
F 1 "GND" H 2955 1427 50  0000 C CNN
F 2 "" H 2950 1600 50  0001 C CNN
F 3 "" H 2950 1600 50  0001 C CNN
	1    2950 1600
	1    0    0    -1  
$EndComp
$Comp
L Connector:Conn_01x02_Male J2
U 1 1 5C2D847C
P 2950 1300
F 0 "J2" V 3010 1340 50  0000 L CNN
F 1 "Conn_01x02_Male" V 3101 1340 50  0000 L CNN
F 2 "Connector_PinHeader_2.54mm:PinHeader_1x02_P2.54mm_Vertical" H 2950 1300 50  0001 C CNN
F 3 "~" H 2950 1300 50  0001 C CNN
	1    2950 1300
	0    1    1    0   
$EndComp
$Comp
L power:GND #PWR0105
U 1 1 5C2DC7D9
P 1200 2900
F 0 "#PWR0105" H 1200 2650 50  0001 C CNN
F 1 "GND" H 1205 2727 50  0000 C CNN
F 2 "" H 1200 2900 50  0001 C CNN
F 3 "" H 1200 2900 50  0001 C CNN
	1    1200 2900
	0    1    1    0   
$EndComp
$Comp
L power:GND #PWR0106
U 1 1 5C2DC8B8
P 1600 1400
F 0 "#PWR0106" H 1600 1150 50  0001 C CNN
F 1 "GND" H 1605 1227 50  0000 C CNN
F 2 "" H 1600 1400 50  0001 C CNN
F 3 "" H 1600 1400 50  0001 C CNN
	1    1600 1400
	0    -1   -1   0   
$EndComp
Wire Wire Line
	5450 2900 5450 3100
NoConn ~ 4850 2000
NoConn ~ 4850 2200
NoConn ~ 4850 2300
NoConn ~ 4850 2400
NoConn ~ 4850 2500
NoConn ~ 4850 2600
NoConn ~ 4850 2700
NoConn ~ 6050 2400
NoConn ~ 6050 2300
NoConn ~ 6050 2200
NoConn ~ 6050 2100
Wire Wire Line
	5450 850  5450 900 
Text GLabel 4750 1600 0    50   Input ~ 0
RST
Text GLabel 6150 2600 2    50   Input ~ 0
RST
Wire Wire Line
	4850 1600 4750 1600
Text GLabel 1600 1500 2    50   Input ~ 0
TxD
Text GLabel 6150 1700 2    50   Input ~ 0
TxD
Wire Wire Line
	6150 1700 6050 1700
Text GLabel 1600 1600 2    50   Input ~ 0
RxD
Text GLabel 6150 1900 2    50   Input ~ 0
RxD
Wire Wire Line
	6050 1900 6150 1900
Text GLabel 6150 1600 2    50   Input ~ 0
GP0
Text GLabel 6150 1800 2    50   Input ~ 0
GP2
Text GLabel 2900 2650 0    50   Input ~ 0
GP2
Wire Wire Line
	6150 1800 6050 1800
Wire Wire Line
	2900 2650 3000 2650
Text GLabel 6150 2000 2    50   Input ~ 0
GP4
Text GLabel 3400 2250 1    50   Input ~ 0
GP4
Wire Wire Line
	6150 2000 6050 2000
Wire Wire Line
	6150 2600 6050 2600
Wire Wire Line
	1200 2900 1300 2900
$Comp
L Switch:SW_Push SW1
U 1 1 5C2E5398
P 5050 3600
F 0 "SW1" H 5050 3885 50  0000 C CNN
F 1 "SW_Push" H 5050 3794 50  0000 C CNN
F 2 "Button_Switch_THT:SW_PUSH_6mm" H 5050 3800 50  0001 C CNN
F 3 "" H 5050 3800 50  0001 C CNN
	1    5050 3600
	1    0    0    -1  
$EndComp
Text GLabel 5350 3600 2    50   Input ~ 0
RST
$Comp
L power:GND #PWR0113
U 1 1 5C2E5404
P 4750 3600
F 0 "#PWR0113" H 4750 3350 50  0001 C CNN
F 1 "GND" H 4755 3427 50  0000 C CNN
F 2 "" H 4750 3600 50  0001 C CNN
F 3 "" H 4750 3600 50  0001 C CNN
	1    4750 3600
	0    1    1    0   
$EndComp
Wire Wire Line
	4750 3600 4850 3600
Wire Wire Line
	5250 3600 5300 3600
$Comp
L power:PWR_FLAG #FLG0101
U 1 1 5C2E642A
P 2850 800
F 0 "#FLG0101" H 2850 875 50  0001 C CNN
F 1 "PWR_FLAG" H 2850 974 50  0000 C CNN
F 2 "" H 2850 800 50  0001 C CNN
F 3 "~" H 2850 800 50  0001 C CNN
	1    2850 800 
	1    0    0    -1  
$EndComp
$Comp
L power:PWR_FLAG #FLG0102
U 1 1 5C2E647D
P 3000 800
F 0 "#FLG0102" H 3000 875 50  0001 C CNN
F 1 "PWR_FLAG" H 3000 974 50  0000 C CNN
F 2 "" H 3000 800 50  0001 C CNN
F 3 "~" H 3000 800 50  0001 C CNN
	1    3000 800 
	1    0    0    -1  
$EndComp
$Comp
L power:GND #PWR0104
U 1 1 5C2E649D
P 2850 900
F 0 "#PWR0104" H 2850 650 50  0001 C CNN
F 1 "GND" H 2855 727 50  0000 C CNN
F 2 "" H 2850 900 50  0001 C CNN
F 3 "" H 2850 900 50  0001 C CNN
	1    2850 900 
	1    0    0    -1  
$EndComp
$Comp
L power:VCC #PWR0114
U 1 1 5C2E6533
P 3000 900
F 0 "#PWR0114" H 3000 750 50  0001 C CNN
F 1 "VCC" H 3018 1073 50  0000 C CNN
F 2 "" H 3000 900 50  0001 C CNN
F 3 "" H 3000 900 50  0001 C CNN
	1    3000 900 
	-1   0    0    1   
$EndComp
Wire Wire Line
	3000 800  3000 900 
Wire Wire Line
	2850 800  2850 900 
$Comp
L power:VCC #PWR0115
U 1 1 5C2E75CC
P 2850 1600
F 0 "#PWR0115" H 2850 1450 50  0001 C CNN
F 1 "VCC" H 2868 1773 50  0000 C CNN
F 2 "" H 2850 1600 50  0001 C CNN
F 3 "" H 2850 1600 50  0001 C CNN
	1    2850 1600
	-1   0    0    1   
$EndComp
$Comp
L power:VCC #PWR0102
U 1 1 5C2E81BD
P 1600 2400
F 0 "#PWR0102" H 1600 2250 50  0001 C CNN
F 1 "VCC" H 1617 2573 50  0000 C CNN
F 2 "" H 1600 2400 50  0001 C CNN
F 3 "" H 1600 2400 50  0001 C CNN
	1    1600 2400
	1    0    0    -1  
$EndComp
$Comp
L foo-rescue:DHT11-Sensor U2
U 1 1 5C2BD272
P 3300 2650
F 0 "U2" H 3071 2696 50  0000 R CNN
F 1 "DHT11" H 3071 2605 50  0000 R CNN
F 2 "Custom:DHT22" H 3450 2900 50  0001 C CNN
F 3 "http://akizukidenshi.com/download/ds/aosong/DHT11.pdf" H 3450 2900 50  0001 C CNN
	1    3300 2650
	-1   0    0    -1  
$EndComp
$Comp
L power:GND #PWR0107
U 1 1 5C2EA793
P 3400 3050
F 0 "#PWR0107" H 3400 2800 50  0001 C CNN
F 1 "GND" H 3405 2877 50  0000 C CNN
F 2 "" H 3400 3050 50  0001 C CNN
F 3 "" H 3400 3050 50  0001 C CNN
	1    3400 3050
	1    0    0    -1  
$EndComp
Wire Wire Line
	3400 2250 3400 2350
Wire Wire Line
	3400 2950 3400 3050
$Comp
L Device:C C1
U 1 1 5C2ED04A
P 1350 2500
F 0 "C1" V 1098 2500 50  0000 C CNN
F 1 "0.1µF" V 1189 2500 50  0000 C CNN
F 2 "Capacitor_SMD:C_1206_3216Metric" H 1388 2350 50  0001 C CNN
F 3 "~" H 1350 2500 50  0001 C CNN
	1    1350 2500
	0    1    1    0   
$EndComp
Wire Wire Line
	1600 2400 1600 2500
Wire Wire Line
	1600 2500 1600 2600
Connection ~ 1600 2500
Wire Wire Line
	1500 2500 1600 2500
$Comp
L power:GND #PWR0108
U 1 1 5C2EE13C
P 1100 2500
F 0 "#PWR0108" H 1100 2250 50  0001 C CNN
F 1 "GND" H 1105 2327 50  0000 C CNN
F 2 "" H 1100 2500 50  0001 C CNN
F 3 "" H 1100 2500 50  0001 C CNN
	1    1100 2500
	0    1    1    0   
$EndComp
Wire Wire Line
	1100 2500 1200 2500
$Comp
L Device:C C2
U 1 1 5C2EE6CA
P 1350 3300
F 0 "C2" V 1098 3300 50  0000 C CNN
F 1 "10µF" V 1189 3300 50  0000 C CNN
F 2 "Capacitor_SMD:C_1206_3216Metric" H 1388 3150 50  0001 C CNN
F 3 "~" H 1350 3300 50  0001 C CNN
	1    1350 3300
	0    1    1    0   
$EndComp
$Comp
L power:GND #PWR0116
U 1 1 5C2EE70A
P 1100 3300
F 0 "#PWR0116" H 1100 3050 50  0001 C CNN
F 1 "GND" H 1105 3127 50  0000 C CNN
F 2 "" H 1100 3300 50  0001 C CNN
F 3 "" H 1100 3300 50  0001 C CNN
	1    1100 3300
	0    1    1    0   
$EndComp
Wire Wire Line
	1600 3200 1600 3300
Wire Wire Line
	1500 3300 1600 3300
Connection ~ 1600 3300
Wire Wire Line
	1200 3300 1100 3300
$Comp
L Device:R R1
U 1 1 5D114E30
P 5300 3800
F 0 "R1" H 5370 3846 50  0000 L CNN
F 1 "10K" H 5370 3755 50  0000 L CNN
F 2 "Resistor_SMD:R_1206_3216Metric" V 5230 3800 50  0001 C CNN
F 3 "~" H 5300 3800 50  0001 C CNN
	1    5300 3800
	1    0    0    -1  
$EndComp
Wire Wire Line
	5300 3650 5300 3600
Connection ~ 5300 3600
Wire Wire Line
	5300 3600 5350 3600
Wire Wire Line
	5300 3950 5300 4050
$Comp
L Device:R R2
U 1 1 5D11ACDF
P 4500 1800
F 0 "R2" V 4293 1800 50  0000 C CNN
F 1 "10K" V 4384 1800 50  0000 C CNN
F 2 "Resistor_SMD:R_1206_3216Metric" V 4430 1800 50  0001 C CNN
F 3 "~" H 4500 1800 50  0001 C CNN
	1    4500 1800
	0    1    1    0   
$EndComp
Wire Wire Line
	4250 1800 4350 1800
Wire Wire Line
	4650 1800 4850 1800
Text GLabel 6150 2500 2    50   Input ~ 0
GP15
Wire Wire Line
	6050 2500 6150 2500
Text GLabel 3850 3600 2    50   Input ~ 0
GP15
$Comp
L Device:R R4
U 1 1 5D123E2E
P 3600 3600
F 0 "R4" V 3393 3600 50  0000 C CNN
F 1 "10K" V 3484 3600 50  0000 C CNN
F 2 "Resistor_SMD:R_1206_3216Metric" V 3530 3600 50  0001 C CNN
F 3 "~" H 3600 3600 50  0001 C CNN
	1    3600 3600
	0    1    1    0   
$EndComp
$Comp
L power:GND #PWR0119
U 1 1 5D1249C4
P 3350 3600
F 0 "#PWR0119" H 3350 3350 50  0001 C CNN
F 1 "GND" H 3355 3427 50  0000 C CNN
F 2 "" H 3350 3600 50  0001 C CNN
F 3 "" H 3350 3600 50  0001 C CNN
	1    3350 3600
	0    1    1    0   
$EndComp
Wire Wire Line
	3350 3600 3450 3600
Wire Wire Line
	3750 3600 3850 3600
$Comp
L Regulator_Linear:LM2937xMP U3
U 1 1 5D12A84F
P 1600 2900
F 0 "U3" V 1554 3004 50  0000 L CNN
F 1 "LM2937xMP" V 1645 3004 50  0000 L CNN
F 2 "Package_TO_SOT_SMD:SOT-223-3_TabPin2" H 1600 3125 50  0001 C CIN
F 3 "http://www.ti.com/lit/ds/symlink/lm2937.pdf" H 1600 2850 50  0001 C CNN
	1    1600 2900
	0    1    1    0   
$EndComp
$Comp
L power:+3V3 #PWR0109
U 1 1 5D1325ED
P 1600 3450
F 0 "#PWR0109" H 1600 3300 50  0001 C CNN
F 1 "+3V3" H 1615 3623 50  0000 C CNN
F 2 "" H 1600 3450 50  0001 C CNN
F 3 "" H 1600 3450 50  0001 C CNN
	1    1600 3450
	-1   0    0    1   
$EndComp
$Comp
L power:+3V3 #PWR0110
U 1 1 5D134FB8
P 1600 1700
F 0 "#PWR0110" H 1600 1550 50  0001 C CNN
F 1 "+3V3" V 1615 1828 50  0000 L CNN
F 2 "" H 1600 1700 50  0001 C CNN
F 3 "" H 1600 1700 50  0001 C CNN
	1    1600 1700
	0    1    1    0   
$EndComp
$Comp
L power:+3V3 #PWR0111
U 1 1 5D137AC5
P 5450 850
F 0 "#PWR0111" H 5450 700 50  0001 C CNN
F 1 "+3V3" H 5465 1023 50  0000 C CNN
F 2 "" H 5450 850 50  0001 C CNN
F 3 "" H 5450 850 50  0001 C CNN
	1    5450 850 
	1    0    0    -1  
$EndComp
$Comp
L power:+3V3 #PWR0112
U 1 1 5D13B120
P 5300 4050
F 0 "#PWR0112" H 5300 3900 50  0001 C CNN
F 1 "+3V3" H 5315 4223 50  0000 C CNN
F 2 "" H 5300 4050 50  0001 C CNN
F 3 "" H 5300 4050 50  0001 C CNN
	1    5300 4050
	-1   0    0    1   
$EndComp
$Comp
L power:+3V3 #PWR0117
U 1 1 5D13B882
P 4250 1800
F 0 "#PWR0117" H 4250 1650 50  0001 C CNN
F 1 "+3V3" V 4265 1928 50  0000 L CNN
F 2 "" H 4250 1800 50  0001 C CNN
F 3 "" H 4250 1800 50  0001 C CNN
	1    4250 1800
	0    -1   -1   0   
$EndComp
$Comp
L Connector:Conn_01x02_Male J3
U 1 1 5D1408D2
P 7000 2250
F 0 "J3" V 7060 2290 50  0000 L CNN
F 1 "Conn_01x02_Male" V 7151 2290 50  0000 L CNN
F 2 "Connector_PinHeader_2.54mm:PinHeader_1x02_P2.54mm_Vertical" H 7000 2250 50  0001 C CNN
F 3 "~" H 7000 2250 50  0001 C CNN
	1    7000 2250
	0    1    1    0   
$EndComp
Text GLabel 6800 2550 0    50   Input ~ 0
GP0
$Comp
L Device:R R3
U 1 1 5D141192
P 6900 2800
F 0 "R3" H 6970 2846 50  0000 L CNN
F 1 "10K" H 6970 2755 50  0000 L CNN
F 2 "Resistor_SMD:R_1206_3216Metric" V 6830 2800 50  0001 C CNN
F 3 "~" H 6900 2800 50  0001 C CNN
	1    6900 2800
	1    0    0    -1  
$EndComp
$Comp
L power:+3V3 #PWR0118
U 1 1 5D141526
P 6900 3050
F 0 "#PWR0118" H 6900 2900 50  0001 C CNN
F 1 "+3V3" H 6915 3223 50  0000 C CNN
F 2 "" H 6900 3050 50  0001 C CNN
F 3 "" H 6900 3050 50  0001 C CNN
	1    6900 3050
	-1   0    0    1   
$EndComp
Wire Wire Line
	6900 2550 6900 2650
Wire Wire Line
	6900 2950 6900 3050
Wire Wire Line
	6050 1600 6150 1600
$Comp
L power:GND #PWR0120
U 1 1 5D1480B6
P 7000 2550
F 0 "#PWR0120" H 7000 2300 50  0001 C CNN
F 1 "GND" H 7005 2377 50  0000 C CNN
F 2 "" H 7000 2550 50  0001 C CNN
F 3 "" H 7000 2550 50  0001 C CNN
	1    7000 2550
	1    0    0    -1  
$EndComp
$Comp
L Device:C C3
U 1 1 5D14AD77
P 5250 900
F 0 "C3" V 4998 900 50  0000 C CNN
F 1 "0.1µF" V 5089 900 50  0000 C CNN
F 2 "Capacitor_SMD:C_1206_3216Metric" H 5288 750 50  0001 C CNN
F 3 "~" H 5250 900 50  0001 C CNN
	1    5250 900 
	0    1    1    0   
$EndComp
$Comp
L Device:C C4
U 1 1 5D14B9E6
P 5250 1100
F 0 "C4" V 4998 1100 50  0000 C CNN
F 1 "10µF" V 5089 1100 50  0000 C CNN
F 2 "Capacitor_SMD:C_1206_3216Metric" H 5288 950 50  0001 C CNN
F 3 "~" H 5250 1100 50  0001 C CNN
	1    5250 1100
	0    1    1    0   
$EndComp
$Comp
L power:GND #PWR0121
U 1 1 5D14CC3D
P 5000 1100
F 0 "#PWR0121" H 5000 850 50  0001 C CNN
F 1 "GND" H 5005 927 50  0000 C CNN
F 2 "" H 5000 1100 50  0001 C CNN
F 3 "" H 5000 1100 50  0001 C CNN
	1    5000 1100
	0    1    -1   0   
$EndComp
$Comp
L power:GND #PWR0122
U 1 1 5D14CF82
P 5000 900
F 0 "#PWR0122" H 5000 650 50  0001 C CNN
F 1 "GND" H 5005 727 50  0000 C CNN
F 2 "" H 5000 900 50  0001 C CNN
F 3 "" H 5000 900 50  0001 C CNN
	1    5000 900 
	0    1    -1   0   
$EndComp
Wire Wire Line
	5000 900  5100 900 
Wire Wire Line
	5000 1100 5100 1100
Wire Wire Line
	5400 900  5450 900 
Connection ~ 5450 900 
Wire Wire Line
	5450 900  5450 1100
Wire Wire Line
	5400 1100 5450 1100
Connection ~ 5450 1100
Wire Wire Line
	5450 1100 5450 1400
Wire Wire Line
	1600 3300 1600 3450
$Comp
L Connector:Conn_01x04_Male J1
U 1 1 5D13CB1D
P 1300 1500
F 0 "J1" H 1408 1781 50  0000 C CNN
F 1 "Conn_01x04_Male" H 1408 1690 50  0000 C CNN
F 2 "Connector_PinHeader_2.54mm:PinHeader_1x04_P2.54mm_Vertical" H 1300 1500 50  0001 C CNN
F 3 "~" H 1300 1500 50  0001 C CNN
	1    1300 1500
	1    0    0    -1  
$EndComp
Wire Wire Line
	1500 1400 1600 1400
Wire Wire Line
	1500 1500 1600 1500
Wire Wire Line
	1500 1600 1600 1600
Wire Wire Line
	1500 1700 1600 1700
Wire Wire Line
	6800 2550 6900 2550
Wire Wire Line
	6900 2550 6900 2450
Connection ~ 6900 2550
Wire Wire Line
	7000 2450 7000 2550
Wire Wire Line
	2850 1500 2850 1600
Wire Wire Line
	2950 1500 2950 1600
$EndSCHEMATC
